%YAML 1.1
%TAG !u! tag:unity3d.com,2011:
--- !u!1 &1000011114526480
GameObject:
  m_ObjectHideFlags: 0
  m_CorrespondingSourceObject: {fileID: 0}
  m_PrefabInstance: {fileID: 0}
  m_PrefabAsset: {fileID: 0}
  serializedVersion: 6
  m_Component:
  - component: {fileID: 4000013229578836}
  - component: {fileID: 33000010693366440}
  - component: {fileID: 23000011926034692}
  - component: {fileID: 111000014007675272}
  m_Layer: 0
  m_Name: RoadWorksBarrierHigh
  m_TagString: Untagged
  m_Icon: {fileID: 0}
  m_NavMeshLayer: 0
  m_StaticEditorFlags: 0
  m_IsActive: 0
--- !u!4 &4000013229578836
Transform:
  m_ObjectHideFlags: 0
  m_CorrespondingSourceObject: {fileID: 0}
  m_PrefabInstance: {fileID: 0}
  m_PrefabAsset: {fileID: 0}
  m_GameObject: {fileID: 1000011114526480}
  m_LocalRotation: {x: 0, y: -0, z: -0, w: 1}
  m_LocalPosition: {x: 0, y: 0, z: 0}
  m_LocalScale: {x: 1, y: 1, z: 1}
  m_Children: []
  m_Father: {fileID: 4000010868486168}
  m_RootOrder: 0
  m_LocalEulerAnglesHint: {x: 0, y: 0, z: 0}
--- !u!33 &33000010693366440
MeshFilter:
  m_ObjectHideFlags: 0
  m_CorrespondingSourceObject: {fileID: 0}
  m_PrefabInstance: {fileID: 0}
  m_PrefabAsset: {fileID: 0}
  m_GameObject: {fileID: 1000011114526480}
  m_Mesh: {fileID: 4300000, guid: 06fd29260038fb34ea2c8a58e5777c39, type: 3}
--- !u!23 &23000011926034692
MeshRenderer:
  m_ObjectHideFlags: 0
  m_CorrespondingSourceObject: {fileID: 0}
  m_PrefabInstance: {fileID: 0}
  m_PrefabAsset: {fileID: 0}
  m_GameObject: {fileID: 1000011114526480}
  m_Enabled: 1
  m_CastShadows: 1
  m_ReceiveShadows: 1
  m_DynamicOccludee: 1
  m_MotionVectors: 1
  m_LightProbeUsage: 1
  m_ReflectionProbeUsage: 1
  m_RayTracingMode: 2
  m_RayTraceProcedural: 0
  m_RenderingLayerMask: 1
  m_RendererPriority: 0
  m_Materials:
  - {fileID: 2100000, guid: a1da5a75d83b2b64d9684707d810f8c7, type: 2}
  m_StaticBatchInfo:
    firstSubMesh: 0
    subMeshCount: 0
  m_StaticBatchRoot: {fileID: 0}
  m_ProbeAnchor: {fileID: 0}
  m_LightProbeVolumeOverride: {fileID: 0}
  m_ScaleInLightmap: 1
  m_ReceiveGI: 1
  m_PreserveUVs: 0
  m_IgnoreNormalsForChartDetection: 0
  m_ImportantGI: 0
  m_StitchLightmapSeams: 1
  m_SelectedEditorRenderState: 3
  m_MinimumChartSize: 4
  m_AutoUVMaxDistance: 0.5
  m_AutoUVMaxAngle: 89
  m_LightmapParameters: {fileID: 0}
  m_SortingLayerID: 0
  m_SortingLayer: 0
  m_SortingOrder: 0
  m_AdditionalVertexStreams: {fileID: 0}
--- !u!111 &111000014007675272
Animation:
  m_ObjectHideFlags: 0
  m_CorrespondingSourceObject: {fileID: 0}
  m_PrefabInstance: {fileID: 0}
  m_PrefabAsset: {fileID: 0}
  m_GameObject: {fileID: 1000011114526480}
  m_Enabled: 1
  serializedVersion: 3
  m_Animation: {fileID: 7400000, guid: bbccc718107e16e4d9e070aa75df5218, type: 3}
  m_Animations:
  - {fileID: 7400000, guid: bbccc718107e16e4d9e070aa75df5218, type: 3}
  m_WrapMode: 0
  m_PlayAutomatically: 0
  m_AnimatePhysics: 0
  m_CullingType: 0
--- !u!1 &1000011769374998
GameObject:
  m_ObjectHideFlags: 0
  m_CorrespondingSourceObject: {fileID: 0}
  m_PrefabInstance: {fileID: 0}
  m_PrefabAsset: {fileID: 0}
  serializedVersion: 6
  m_Component:
  - component: {fileID: 4000010868486168}
  - component: {fileID: 65000011981347708}
  - component: {fileID: 114000011473360826}
  - component: {fileID: 111000013917959116}
  - component: {fileID: 82000010844000776}
  - component: {fileID: 114422673240210310}
  m_Layer: 9
  m_Name: ObstacleHighBarrier
  m_TagString: Untagged
  m_Icon: {fileID: 0}
  m_NavMeshLayer: 0
  m_StaticEditorFlags: 0
  m_IsActive: 1
--- !u!4 &4000010868486168
Transform:
  m_ObjectHideFlags: 0
  m_CorrespondingSourceObject: {fileID: 0}
  m_PrefabInstance: {fileID: 0}
  m_PrefabAsset: {fileID: 0}
  m_GameObject: {fileID: 1000011769374998}
  m_LocalRotation: {x: 0, y: 0, z: 0, w: 1}
  m_LocalPosition: {x: 0, y: 0, z: 0}
  m_LocalScale: {x: 1, y: 1, z: 1}
  m_Children:
  - {fileID: 4000013229578836}
  - {fileID: 1916857619619154626}
  - {fileID: 188739690664802694}
  - {fileID: 7758265264211838474}
  m_Father: {fileID: 0}
  m_RootOrder: 0
  m_LocalEulerAnglesHint: {x: 0, y: 0, z: 0}
--- !u!65 &65000011981347708
BoxCollider:
  m_ObjectHideFlags: 0
  m_CorrespondingSourceObject: {fileID: 0}
  m_PrefabInstance: {fileID: 0}
  m_PrefabAsset: {fileID: 0}
  m_GameObject: {fileID: 1000011769374998}
  m_Material: {fileID: 0}
  m_IsTrigger: 1
  m_Enabled: 1
  serializedVersion: 2
  m_Size: {x: 5.0343904, y: 0.5048195, z: 0.29541254}
  m_Center: {x: -0.02892065, y: 1.26, z: -0.004761219}
--- !u!114 &114000011473360826
MonoBehaviour:
  m_ObjectHideFlags: 0
  m_CorrespondingSourceObject: {fileID: 0}
  m_PrefabInstance: {fileID: 0}
  m_PrefabAsset: {fileID: 0}
  m_GameObject: {fileID: 1000011769374998}
  m_Enabled: 1
  m_EditorHideFlags: 0
  m_Script: {fileID: 11500000, guid: 74cb1264bb5e40d47b4850ac0a649a77, type: 3}
  m_Name: 
  m_EditorClassIdentifier: 
  impactedSound: {fileID: 8300000, guid: 9ed08397b3fef21418662ed63130d301, type: 3}
--- !u!111 &111000013917959116
Animation:
  m_ObjectHideFlags: 0
  m_CorrespondingSourceObject: {fileID: 0}
  m_PrefabInstance: {fileID: 0}
  m_PrefabAsset: {fileID: 0}
  m_GameObject: {fileID: 1000011769374998}
  m_Enabled: 1
  serializedVersion: 3
  m_Animation: {fileID: 7400000, guid: bbccc718107e16e4d9e070aa75df5218, type: 3}
  m_Animations:
  - {fileID: 7400000, guid: bbccc718107e16e4d9e070aa75df5218, type: 3}
  m_WrapMode: 0
  m_PlayAutomatically: 0
  m_AnimatePhysics: 0
  m_CullingType: 0
--- !u!82 &82000010844000776
AudioSource:
  m_ObjectHideFlags: 0
  m_CorrespondingSourceObject: {fileID: 0}
  m_PrefabInstance: {fileID: 0}
  m_PrefabAsset: {fileID: 0}
  m_GameObject: {fileID: 1000011769374998}
  m_Enabled: 1
  serializedVersion: 4
  OutputAudioMixerGroup: {fileID: 0}
  m_audioClip: {fileID: 0}
  m_PlayOnAwake: 1
  m_Volume: 1
  m_Pitch: 1
  Loop: 0
  Mute: 0
  Spatialize: 0
  SpatializePostEffects: 0
  Priority: 128
  DopplerLevel: 1
  MinDistance: 1
  MaxDistance: 500
  Pan2D: 0
  rolloffMode: 0
  BypassEffects: 0
  BypassListenerEffects: 0
  BypassReverbZones: 0
  rolloffCustomCurve:
    serializedVersion: 2
    m_Curve:
    - serializedVersion: 3
      time: 0
      value: 1
      inSlope: 0
      outSlope: 0
      tangentMode: 0
      weightedMode: 0
      inWeight: 0.33333334
      outWeight: 0.33333334
    - serializedVersion: 3
      time: 1
      value: 0
      inSlope: 0
      outSlope: 0
      tangentMode: 0
      weightedMode: 0
      inWeight: 0.33333334
      outWeight: 0.33333334
    m_PreInfinity: 2
    m_PostInfinity: 2
    m_RotationOrder: 4
  panLevelCustomCurve:
    serializedVersion: 2
    m_Curve:
    - serializedVersion: 3
      time: 0
      value: 1
      inSlope: 0
      outSlope: 0
      tangentMode: 0
      weightedMode: 0
      inWeight: 0.33333334
      outWeight: 0.33333334
    m_PreInfinity: 2
    m_PostInfinity: 2
    m_RotationOrder: 0
  spreadCustomCurve:
    serializedVersion: 2
    m_Curve:
    - serializedVersion: 3
      time: 0
      value: 0
      inSlope: 0
      outSlope: 0
      tangentMode: 0
      weightedMode: 0
      inWeight: 0.33333334
      outWeight: 0.33333334
    m_PreInfinity: 2
    m_PostInfinity: 2
    m_RotationOrder: 0
  reverbZoneMixCustomCurve:
    serializedVersion: 2
    m_Curve:
    - serializedVersion: 3
      time: 0
      value: 1
      inSlope: 0
      outSlope: 0
      tangentMode: 0
      weightedMode: 0
      inWeight: 0.33333334
      outWeight: 0.33333334
    m_PreInfinity: 2
    m_PostInfinity: 2
    m_RotationOrder: 0
--- !u!114 &114422673240210310
MonoBehaviour:
  m_ObjectHideFlags: 0
  m_CorrespondingSourceObject: {fileID: 0}
  m_PrefabInstance: {fileID: 0}
  m_PrefabAsset: {fileID: 0}
  m_GameObject: {fileID: 1000011769374998}
  m_Enabled: 1
  m_EditorHideFlags: 0
  m_Script: {fileID: 11500000, guid: 15e38bebbdc31db468a604b05bd1d75e, type: 3}
  m_Name: 
  m_EditorClassIdentifier: 
  mixerGroup: SFX
--- !u!1001 &365971083123940973
PrefabInstance:
  m_ObjectHideFlags: 0
  serializedVersion: 2
  m_Modification:
    m_TransformParent: {fileID: 4000010868486168}
    m_Modifications:
    - target: {fileID: -8679921383154817045, guid: d61261df73f25f64c99fa39bb85a82c9,
        type: 3}
      propertyPath: m_RootOrder
      value: 2
      objectReference: {fileID: 0}
    - target: {fileID: -8679921383154817045, guid: d61261df73f25f64c99fa39bb85a82c9,
        type: 3}
      propertyPath: m_LocalScale.x
      value: 1.5977
      objectReference: {fileID: 0}
    - target: {fileID: -8679921383154817045, guid: d61261df73f25f64c99fa39bb85a82c9,
        type: 3}
      propertyPath: m_LocalScale.y
      value: 1.5977
      objectReference: {fileID: 0}
    - target: {fileID: -8679921383154817045, guid: d61261df73f25f64c99fa39bb85a82c9,
        type: 3}
      propertyPath: m_LocalScale.z
      value: 1.5977
      objectReference: {fileID: 0}
    - target: {fileID: -8679921383154817045, guid: d61261df73f25f64c99fa39bb85a82c9,
        type: 3}
      propertyPath: m_LocalPosition.x
      value: -2.273
      objectReference: {fileID: 0}
    - target: {fileID: -8679921383154817045, guid: d61261df73f25f64c99fa39bb85a82c9,
        type: 3}
      propertyPath: m_LocalPosition.y
      value: 0.913
      objectReference: {fileID: 0}
    - target: {fileID: -8679921383154817045, guid: d61261df73f25f64c99fa39bb85a82c9,
        type: 3}
      propertyPath: m_LocalPosition.z
      value: -0.097211
      objectReference: {fileID: 0}
    - target: {fileID: -8679921383154817045, guid: d61261df73f25f64c99fa39bb85a82c9,
        type: 3}
      propertyPath: m_LocalRotation.w
      value: 0.9952281
      objectReference: {fileID: 0}
    - target: {fileID: -8679921383154817045, guid: d61261df73f25f64c99fa39bb85a82c9,
        type: 3}
      propertyPath: m_LocalRotation.x
      value: 0.09757557
      objectReference: {fileID: 0}
    - target: {fileID: -8679921383154817045, guid: d61261df73f25f64c99fa39bb85a82c9,
        type: 3}
      propertyPath: m_LocalRotation.y
      value: -0.000000004265158
      objectReference: {fileID: 0}
    - target: {fileID: -8679921383154817045, guid: d61261df73f25f64c99fa39bb85a82c9,
        type: 3}
      propertyPath: m_LocalRotation.z
      value: 0.000000043502798
      objectReference: {fileID: 0}
    - target: {fileID: -8679921383154817045, guid: d61261df73f25f64c99fa39bb85a82c9,
        type: 3}
      propertyPath: m_LocalEulerAnglesHint.x
      value: 0
      objectReference: {fileID: 0}
    - target: {fileID: -8679921383154817045, guid: d61261df73f25f64c99fa39bb85a82c9,
        type: 3}
      propertyPath: m_LocalEulerAnglesHint.y
      value: 0
      objectReference: {fileID: 0}
    - target: {fileID: -8679921383154817045, guid: d61261df73f25f64c99fa39bb85a82c9,
        type: 3}
      propertyPath: m_LocalEulerAnglesHint.z
      value: 0
      objectReference: {fileID: 0}
    - target: {fileID: 919132149155446097, guid: d61261df73f25f64c99fa39bb85a82c9,
        type: 3}
      propertyPath: m_Name
      value: barrera-constru--der
      objectReference: {fileID: 0}
    m_RemovedComponents: []
  m_SourcePrefab: {fileID: 100100000, guid: d61261df73f25f64c99fa39bb85a82c9, type: 3}
--- !u!4 &188739690664802694 stripped
Transform:
  m_CorrespondingSourceObject: {fileID: -8679921383154817045, guid: d61261df73f25f64c99fa39bb85a82c9,
    type: 3}
  m_PrefabInstance: {fileID: 365971083123940973}
  m_PrefabAsset: {fileID: 0}
--- !u!1001 &2094370244722945321
PrefabInstance:
  m_ObjectHideFlags: 0
  serializedVersion: 2
  m_Modification:
    m_TransformParent: {fileID: 4000010868486168}
    m_Modifications:
    - target: {fileID: -8679921383154817045, guid: 8cb9d0a01afc5f24c9fd63859b3ff531,
        type: 3}
      propertyPath: m_RootOrder
      value: 1
      objectReference: {fileID: 0}
    - target: {fileID: -8679921383154817045, guid: 8cb9d0a01afc5f24c9fd63859b3ff531,
        type: 3}
      propertyPath: m_LocalScale.x
      value: 1.5977
      objectReference: {fileID: 0}
    - target: {fileID: -8679921383154817045, guid: 8cb9d0a01afc5f24c9fd63859b3ff531,
        type: 3}
      propertyPath: m_LocalScale.y
      value: 1.5977
      objectReference: {fileID: 0}
    - target: {fileID: -8679921383154817045, guid: 8cb9d0a01afc5f24c9fd63859b3ff531,
        type: 3}
      propertyPath: m_LocalScale.z
      value: 1.5977
      objectReference: {fileID: 0}
    - target: {fileID: -8679921383154817045, guid: 8cb9d0a01afc5f24c9fd63859b3ff531,
        type: 3}
      propertyPath: m_LocalPosition.x
      value: 1.548
      objectReference: {fileID: 0}
    - target: {fileID: -8679921383154817045, guid: 8cb9d0a01afc5f24c9fd63859b3ff531,
        type: 3}
      propertyPath: m_LocalPosition.y
      value: 1.204
      objectReference: {fileID: 0}
    - target: {fileID: -8679921383154817045, guid: 8cb9d0a01afc5f24c9fd63859b3ff531,
        type: 3}
      propertyPath: m_LocalPosition.z
      value: -0.039
      objectReference: {fileID: 0}
    - target: {fileID: -8679921383154817045, guid: 8cb9d0a01afc5f24c9fd63859b3ff531,
        type: 3}
      propertyPath: m_LocalRotation.w
      value: 0.9952281
      objectReference: {fileID: 0}
    - target: {fileID: -8679921383154817045, guid: 8cb9d0a01afc5f24c9fd63859b3ff531,
        type: 3}
      propertyPath: m_LocalRotation.x
      value: 0.09757557
      objectReference: {fileID: 0}
    - target: {fileID: -8679921383154817045, guid: 8cb9d0a01afc5f24c9fd63859b3ff531,
        type: 3}
      propertyPath: m_LocalRotation.y
      value: -0.000000004265158
      objectReference: {fileID: 0}
    - target: {fileID: -8679921383154817045, guid: 8cb9d0a01afc5f24c9fd63859b3ff531,
        type: 3}
      propertyPath: m_LocalRotation.z
      value: 0.000000043502798
      objectReference: {fileID: 0}
    - target: {fileID: -8679921383154817045, guid: 8cb9d0a01afc5f24c9fd63859b3ff531,
        type: 3}
      propertyPath: m_LocalEulerAnglesHint.x
      value: 0
      objectReference: {fileID: 0}
    - target: {fileID: -8679921383154817045, guid: 8cb9d0a01afc5f24c9fd63859b3ff531,
        type: 3}
      propertyPath: m_LocalEulerAnglesHint.y
      value: 0
      objectReference: {fileID: 0}
    - target: {fileID: -8679921383154817045, guid: 8cb9d0a01afc5f24c9fd63859b3ff531,
        type: 3}
      propertyPath: m_LocalEulerAnglesHint.z
      value: 0
      objectReference: {fileID: 0}
    - target: {fileID: 919132149155446097, guid: 8cb9d0a01afc5f24c9fd63859b3ff531,
        type: 3}
      propertyPath: m_Name
      value: barrera-constru--izq
      objectReference: {fileID: 0}
    m_RemovedComponents: []
  m_SourcePrefab: {fileID: 100100000, guid: 8cb9d0a01afc5f24c9fd63859b3ff531, type: 3}
--- !u!4 &1916857619619154626 stripped
Transform:
  m_CorrespondingSourceObject: {fileID: -8679921383154817045, guid: 8cb9d0a01afc5f24c9fd63859b3ff531,
    type: 3}
  m_PrefabInstance: {fileID: 2094370244722945321}
  m_PrefabAsset: {fileID: 0}
--- !u!1001 &7791328898647859681
PrefabInstance:
  m_ObjectHideFlags: 0
  serializedVersion: 2
  m_Modification:
    m_TransformParent: {fileID: 4000010868486168}
    m_Modifications:
    - target: {fileID: -8679921383154817045, guid: 0081a65dcffd2194b94aa3a4fd35aba7,
        type: 3}
      propertyPath: m_RootOrder
      value: 3
      objectReference: {fileID: 0}
    - target: {fileID: -8679921383154817045, guid: 0081a65dcffd2194b94aa3a4fd35aba7,
        type: 3}
      propertyPath: m_LocalScale.x
      value: 1.5977
      objectReference: {fileID: 0}
    - target: {fileID: -8679921383154817045, guid: 0081a65dcffd2194b94aa3a4fd35aba7,
        type: 3}
      propertyPath: m_LocalScale.y
      value: 1.5977
      objectReference: {fileID: 0}
    - target: {fileID: -8679921383154817045, guid: 0081a65dcffd2194b94aa3a4fd35aba7,
        type: 3}
      propertyPath: m_LocalScale.z
      value: 1.5977
      objectReference: {fileID: 0}
    - target: {fileID: -8679921383154817045, guid: 0081a65dcffd2194b94aa3a4fd35aba7,
        type: 3}
      propertyPath: m_LocalPosition.x
      value: 0.019
      objectReference: {fileID: 0}
    - target: {fileID: -8679921383154817045, guid: 0081a65dcffd2194b94aa3a4fd35aba7,
        type: 3}
      propertyPath: m_LocalPosition.y
      value: 1.199
      objectReference: {fileID: 0}
    - target: {fileID: -8679921383154817045, guid: 0081a65dcffd2194b94aa3a4fd35aba7,
        type: 3}
      propertyPath: m_LocalPosition.z
      value: -0.04
      objectReference: {fileID: 0}
    - target: {fileID: -8679921383154817045, guid: 0081a65dcffd2194b94aa3a4fd35aba7,
        type: 3}
      propertyPath: m_LocalRotation.w
      value: 0.9952281
      objectReference: {fileID: 0}
    - target: {fileID: -8679921383154817045, guid: 0081a65dcffd2194b94aa3a4fd35aba7,
        type: 3}
      propertyPath: m_LocalRotation.x
      value: 0.09757557
      objectReference: {fileID: 0}
    - target: {fileID: -8679921383154817045, guid: 0081a65dcffd2194b94aa3a4fd35aba7,
        type: 3}
      propertyPath: m_LocalRotation.y
      value: -0.000000004265158
      objectReference: {fileID: 0}
    - target: {fileID: -8679921383154817045, guid: 0081a65dcffd2194b94aa3a4fd35aba7,
        type: 3}
      propertyPath: m_LocalRotation.z
      value: 0.000000043502798
      objectReference: {fileID: 0}
    - target: {fileID: -8679921383154817045, guid: 0081a65dcffd2194b94aa3a4fd35aba7,
        type: 3}
      propertyPath: m_LocalEulerAnglesHint.x
      value: 0
      objectReference: {fileID: 0}
    - target: {fileID: -8679921383154817045, guid: 0081a65dcffd2194b94aa3a4fd35aba7,
        type: 3}
      propertyPath: m_LocalEulerAnglesHint.y
      value: 0
      objectReference: {fileID: 0}
    - target: {fileID: -8679921383154817045, guid: 0081a65dcffd2194b94aa3a4fd35aba7,
        type: 3}
      propertyPath: m_LocalEulerAnglesHint.z
      value: 0
      objectReference: {fileID: 0}
    - target: {fileID: 919132149155446097, guid: 0081a65dcffd2194b94aa3a4fd35aba7,
        type: 3}
      propertyPath: m_Name
      value: barrera-constru--palos
      objectReference: {fileID: 0}
    m_RemovedComponents: []
  m_SourcePrefab: {fileID: 100100000, guid: 0081a65dcffd2194b94aa3a4fd35aba7, type: 3}
--- !u!4 &7758265264211838474 stripped
Transform:
  m_CorrespondingSourceObject: {fileID: -8679921383154817045, guid: 0081a65dcffd2194b94aa3a4fd35aba7,
    type: 3}
  m_PrefabInstance: {fileID: 7791328898647859681}
  m_PrefabAsset: {fileID: 0}
