%YAML 1.1
%TAG !u! tag:unity3d.com,2011:
--- !u!29 &1
OcclusionCullingSettings:
  m_ObjectHideFlags: 0
  serializedVersion: 2
  m_OcclusionBakeSettings:
    smallestOccluder: 5
    smallestHole: 0.25
    backfaceThreshold: 100
  m_SceneGUID: 00000000000000000000000000000000
  m_OcclusionCullingData: {fileID: 0}
--- !u!104 &2
RenderSettings:
  m_ObjectHideFlags: 0
  serializedVersion: 9
  m_Fog: 0
  m_FogColor: {r: 0.5, g: 0.5, b: 0.5, a: 1}
  m_FogMode: 3
  m_FogDensity: 0.01
  m_LinearFogStart: 0
  m_LinearFogEnd: 300
  m_AmbientSkyColor: {r: 0.212, g: 0.227, b: 0.259, a: 1}
  m_AmbientEquatorColor: {r: 0.114, g: 0.125, b: 0.133, a: 1}
  m_AmbientGroundColor: {r: 0.047, g: 0.043, b: 0.035, a: 1}
  m_AmbientIntensity: 1
  m_AmbientMode: 0
  m_SubtractiveShadowColor: {r: 0.42, g: 0.478, b: 0.627, a: 1}
  m_SkyboxMaterial: {fileID: 10304, guid: 0000000000000000f000000000000000, type: 0}
  m_HaloStrength: 0.5
  m_FlareStrength: 1
  m_FlareFadeSpeed: 3
  m_HaloTexture: {fileID: 0}
  m_SpotCookie: {fileID: 10001, guid: 0000000000000000e000000000000000, type: 0}
  m_DefaultReflectionMode: 0
  m_DefaultReflectionResolution: 128
  m_ReflectionBounces: 1
  m_ReflectionIntensity: 1
  m_CustomReflection: {fileID: 0}
  m_Sun: {fileID: 0}
  m_IndirectSpecularColor: {r: 0, g: 0, b: 0, a: 1}
  m_UseRadianceAmbientProbe: 0
--- !u!157 &3
LightmapSettings:
  m_ObjectHideFlags: 0
  serializedVersion: 12
  m_GIWorkflowMode: 1
  m_GISettings:
    serializedVersion: 2
    m_BounceScale: 1
    m_IndirectOutputScale: 1
    m_AlbedoBoost: 1
    m_EnvironmentLightingMode: 0
    m_EnableBakedLightmaps: 1
    m_EnableRealtimeLightmaps: 1
  m_LightmapEditorSettings:
    serializedVersion: 12
    m_Resolution: 2
    m_BakeResolution: 40
    m_AtlasSize: 1024
    m_AO: 0
    m_AOMaxDistance: 1
    m_CompAOExponent: 1
    m_CompAOExponentDirect: 0
    m_ExtractAmbientOcclusion: 0
    m_Padding: 2
    m_LightmapParameters: {fileID: 0}
    m_LightmapsBakeMode: 1
    m_TextureCompression: 1
    m_FinalGather: 0
    m_FinalGatherFiltering: 1
    m_FinalGatherRayCount: 256
    m_ReflectionCompression: 2
    m_MixedBakeMode: 2
    m_BakeBackend: 0
    m_PVRSampling: 1
    m_PVRDirectSampleCount: 32
    m_PVRSampleCount: 500
    m_PVRBounces: 2
    m_PVREnvironmentSampleCount: 500
    m_PVREnvironmentReferencePointCount: 2048
    m_PVRFilteringMode: 2
    m_PVRDenoiserTypeDirect: 0
    m_PVRDenoiserTypeIndirect: 0
    m_PVRDenoiserTypeAO: 0
    m_PVRFilterTypeDirect: 0
    m_PVRFilterTypeIndirect: 0
    m_PVRFilterTypeAO: 0
    m_PVREnvironmentMIS: 0
    m_PVRCulling: 1
    m_PVRFilteringGaussRadiusDirect: 1
    m_PVRFilteringGaussRadiusIndirect: 5
    m_PVRFilteringGaussRadiusAO: 2
    m_PVRFilteringAtrousPositionSigmaDirect: 0.5
    m_PVRFilteringAtrousPositionSigmaIndirect: 2
    m_PVRFilteringAtrousPositionSigmaAO: 1
    m_ExportTrainingData: 0
    m_TrainingDataDestination: TrainingData
    m_LightProbeSampleCountMultiplier: 4
  m_LightingDataAsset: {fileID: 0}
  m_LightingSettings: {fileID: 4890085278179872738, guid: 8761d3ec7aae2bf4ab5365334194a899,
    type: 2}
--- !u!196 &4
NavMeshSettings:
  serializedVersion: 2
  m_ObjectHideFlags: 0
  m_BuildSettings:
    serializedVersion: 2
    agentTypeID: 0
    agentRadius: 0.5
    agentHeight: 2
    agentSlope: 45
    agentClimb: 0.4
    ledgeDropHeight: 0
    maxJumpAcrossDistance: 0
    minRegionArea: 2
    manualCellSize: 0
    cellSize: 0.16666667
    manualTileSize: 0
    tileSize: 256
    accuratePlacement: 0
    maxJobWorkers: 0
    preserveTilesOutsideBounds: 0
    debug:
      m_Flags: 0
  m_NavMeshData: {fileID: 0}
--- !u!1001 &133418421
PrefabInstance:
  m_ObjectHideFlags: 0
  serializedVersion: 2
  m_Modification:
    m_TransformParent: {fileID: 0}
    m_Modifications:
    - target: {fileID: 4861572118895084, guid: 1c1554d784ee185448c6c3699c5248ad, type: 3}
      propertyPath: m_RootOrder
      value: 2
      objectReference: {fileID: 0}
    - target: {fileID: 4861572118895084, guid: 1c1554d784ee185448c6c3699c5248ad, type: 3}
      propertyPath: m_LocalPosition.x
      value: 12.654229
      objectReference: {fileID: 0}
    - target: {fileID: 4861572118895084, guid: 1c1554d784ee185448c6c3699c5248ad, type: 3}
      propertyPath: m_LocalPosition.y
      value: -2.5755675e-18
      objectReference: {fileID: 0}
    - target: {fileID: 4861572118895084, guid: 1c1554d784ee185448c6c3699c5248ad, type: 3}
      propertyPath: m_LocalPosition.z
      value: 14.847136
      objectReference: {fileID: 0}
    - target: {fileID: 4861572118895084, guid: 1c1554d784ee185448c6c3699c5248ad, type: 3}
      propertyPath: m_LocalRotation.w
      value: 1
      objectReference: {fileID: 0}
    - target: {fileID: 4861572118895084, guid: 1c1554d784ee185448c6c3699c5248ad, type: 3}
      propertyPath: m_LocalRotation.x
      value: 0
      objectReference: {fileID: 0}
    - target: {fileID: 4861572118895084, guid: 1c1554d784ee185448c6c3699c5248ad, type: 3}
      propertyPath: m_LocalRotation.y
      value: 0
      objectReference: {fileID: 0}
    - target: {fileID: 4861572118895084, guid: 1c1554d784ee185448c6c3699c5248ad, type: 3}
      propertyPath: m_LocalRotation.z
      value: 0
      objectReference: {fileID: 0}
    m_RemovedComponents: []
  m_SourcePrefab: {fileID: 100100000, guid: 1c1554d784ee185448c6c3699c5248ad, type: 3}
--- !u!1001 &177278467
PrefabInstance:
  m_ObjectHideFlags: 0
  serializedVersion: 2
  m_Modification:
    m_TransformParent: {fileID: 0}
    m_Modifications:
    - target: {fileID: 4482697448988842, guid: e74fd2289406d214c9e094e2f913deb9, type: 3}
      propertyPath: m_RootOrder
      value: 29
      objectReference: {fileID: 0}
    - target: {fileID: 4482697448988842, guid: e74fd2289406d214c9e094e2f913deb9, type: 3}
      propertyPath: m_LocalPosition.x
      value: -2.6165142
      objectReference: {fileID: 0}
    - target: {fileID: 4482697448988842, guid: e74fd2289406d214c9e094e2f913deb9, type: 3}
      propertyPath: m_LocalPosition.y
      value: -1.4778785e-19
      objectReference: {fileID: 0}
    - target: {fileID: 4482697448988842, guid: e74fd2289406d214c9e094e2f913deb9, type: 3}
      propertyPath: m_LocalPosition.z
      value: 0.8519389
      objectReference: {fileID: 0}
    - target: {fileID: 4482697448988842, guid: e74fd2289406d214c9e094e2f913deb9, type: 3}
      propertyPath: m_LocalRotation.w
      value: 1
      objectReference: {fileID: 0}
    - target: {fileID: 4482697448988842, guid: e74fd2289406d214c9e094e2f913deb9, type: 3}
      propertyPath: m_LocalRotation.x
      value: 0
      objectReference: {fileID: 0}
    - target: {fileID: 4482697448988842, guid: e74fd2289406d214c9e094e2f913deb9, type: 3}
      propertyPath: m_LocalRotation.y
      value: 0
      objectReference: {fileID: 0}
    - target: {fileID: 4482697448988842, guid: e74fd2289406d214c9e094e2f913deb9, type: 3}
      propertyPath: m_LocalRotation.z
      value: 0
      objectReference: {fileID: 0}
    m_RemovedComponents: []
  m_SourcePrefab: {fileID: 100100000, guid: e74fd2289406d214c9e094e2f913deb9, type: 3}
--- !u!1001 &225320139
PrefabInstance:
  m_ObjectHideFlags: 0
  serializedVersion: 2
  m_Modification:
    m_TransformParent: {fileID: 0}
    m_Modifications:
    - target: {fileID: 4731340649763582, guid: 83108cda3d32edb4880d9e49bc847c9e, type: 3}
      propertyPath: m_RootOrder
      value: 4
      objectReference: {fileID: 0}
    - target: {fileID: 4731340649763582, guid: 83108cda3d32edb4880d9e49bc847c9e, type: 3}
      propertyPath: m_LocalPosition.x
      value: 17.88696
      objectReference: {fileID: 0}
    - target: {fileID: 4731340649763582, guid: 83108cda3d32edb4880d9e49bc847c9e, type: 3}
      propertyPath: m_LocalPosition.y
      value: -1.7723037e-18
      objectReference: {fileID: 0}
    - target: {fileID: 4731340649763582, guid: 83108cda3d32edb4880d9e49bc847c9e, type: 3}
      propertyPath: m_LocalPosition.z
      value: 10.216636
      objectReference: {fileID: 0}
    - target: {fileID: 4731340649763582, guid: 83108cda3d32edb4880d9e49bc847c9e, type: 3}
      propertyPath: m_LocalRotation.w
      value: 1
      objectReference: {fileID: 0}
    - target: {fileID: 4731340649763582, guid: 83108cda3d32edb4880d9e49bc847c9e, type: 3}
      propertyPath: m_LocalRotation.x
      value: 0
      objectReference: {fileID: 0}
    - target: {fileID: 4731340649763582, guid: 83108cda3d32edb4880d9e49bc847c9e, type: 3}
      propertyPath: m_LocalRotation.y
      value: 0
      objectReference: {fileID: 0}
    - target: {fileID: 4731340649763582, guid: 83108cda3d32edb4880d9e49bc847c9e, type: 3}
      propertyPath: m_LocalRotation.z
      value: 0
      objectReference: {fileID: 0}
    m_RemovedComponents: []
  m_SourcePrefab: {fileID: 100100000, guid: 83108cda3d32edb4880d9e49bc847c9e, type: 3}
--- !u!1001 &305185094
PrefabInstance:
  m_ObjectHideFlags: 0
  serializedVersion: 2
  m_Modification:
    m_TransformParent: {fileID: 0}
    m_Modifications:
    - target: {fileID: 4539087715562908, guid: 554fc4683233ce6458730fcb664c091b, type: 3}
      propertyPath: m_RootOrder
      value: 9
      objectReference: {fileID: 0}
    - target: {fileID: 4539087715562908, guid: 554fc4683233ce6458730fcb664c091b, type: 3}
      propertyPath: m_LocalPosition.x
      value: 4.8255305
      objectReference: {fileID: 0}
    - target: {fileID: 4539087715562908, guid: 554fc4683233ce6458730fcb664c091b, type: 3}
      propertyPath: m_LocalPosition.y
      value: 2.2418975e-19
      objectReference: {fileID: 0}
    - target: {fileID: 4539087715562908, guid: 554fc4683233ce6458730fcb664c091b, type: 3}
      propertyPath: m_LocalPosition.z
      value: -1.292366
      objectReference: {fileID: 0}
    - target: {fileID: 4539087715562908, guid: 554fc4683233ce6458730fcb664c091b, type: 3}
      propertyPath: m_LocalRotation.w
      value: 1
      objectReference: {fileID: 0}
    - target: {fileID: 4539087715562908, guid: 554fc4683233ce6458730fcb664c091b, type: 3}
      propertyPath: m_LocalRotation.x
      value: -0
      objectReference: {fileID: 0}
    - target: {fileID: 4539087715562908, guid: 554fc4683233ce6458730fcb664c091b, type: 3}
      propertyPath: m_LocalRotation.y
      value: -0
      objectReference: {fileID: 0}
    - target: {fileID: 4539087715562908, guid: 554fc4683233ce6458730fcb664c091b, type: 3}
      propertyPath: m_LocalRotation.z
      value: -0
      objectReference: {fileID: 0}
    m_RemovedComponents: []
  m_SourcePrefab: {fileID: 100100000, guid: 554fc4683233ce6458730fcb664c091b, type: 3}
--- !u!1001 &384425640
PrefabInstance:
  m_ObjectHideFlags: 0
  serializedVersion: 2
  m_Modification:
    m_TransformParent: {fileID: 0}
    m_Modifications:
    - target: {fileID: 4324091281796014, guid: 3da7295d3f87e2f44ab5868a6b9e3303, type: 3}
      propertyPath: m_RootOrder
      value: 7
      objectReference: {fileID: 0}
    - target: {fileID: 4324091281796014, guid: 3da7295d3f87e2f44ab5868a6b9e3303, type: 3}
      propertyPath: m_LocalPosition.x
      value: 6.504272
      objectReference: {fileID: 0}
    - target: {fileID: 4324091281796014, guid: 3da7295d3f87e2f44ab5868a6b9e3303, type: 3}
      propertyPath: m_LocalPosition.y
      value: 1.767583e-18
      objectReference: {fileID: 0}
    - target: {fileID: 4324091281796014, guid: 3da7295d3f87e2f44ab5868a6b9e3303, type: 3}
      propertyPath: m_LocalPosition.z
      value: -10.189423
      objectReference: {fileID: 0}
    - target: {fileID: 4324091281796014, guid: 3da7295d3f87e2f44ab5868a6b9e3303, type: 3}
      propertyPath: m_LocalRotation.w
      value: 1
      objectReference: {fileID: 0}
    - target: {fileID: 4324091281796014, guid: 3da7295d3f87e2f44ab5868a6b9e3303, type: 3}
      propertyPath: m_LocalRotation.x
      value: -0
      objectReference: {fileID: 0}
    - target: {fileID: 4324091281796014, guid: 3da7295d3f87e2f44ab5868a6b9e3303, type: 3}
      propertyPath: m_LocalRotation.y
      value: -0
      objectReference: {fileID: 0}
    - target: {fileID: 4324091281796014, guid: 3da7295d3f87e2f44ab5868a6b9e3303, type: 3}
      propertyPath: m_LocalRotation.z
      value: -0
      objectReference: {fileID: 0}
    m_RemovedComponents: []
  m_SourcePrefab: {fileID: 100100000, guid: 3da7295d3f87e2f44ab5868a6b9e3303, type: 3}
--- !u!1 &419611142
GameObject:
  m_ObjectHideFlags: 0
  m_CorrespondingSourceObject: {fileID: 0}
  m_PrefabInstance: {fileID: 0}
  m_PrefabAsset: {fileID: 0}
  serializedVersion: 6
  m_Component:
  - component: {fileID: 419611147}
  - component: {fileID: 419611146}
  - component: {fileID: 419611144}
  - component: {fileID: 419611143}
  m_Layer: 0
  m_Name: Main Camera
  m_TagString: MainCamera
  m_Icon: {fileID: 0}
  m_NavMeshLayer: 0
  m_StaticEditorFlags: 0
  m_IsActive: 1
--- !u!81 &419611143
AudioListener:
  m_ObjectHideFlags: 0
  m_CorrespondingSourceObject: {fileID: 0}
  m_PrefabInstance: {fileID: 0}
  m_PrefabAsset: {fileID: 0}
  m_GameObject: {fileID: 419611142}
  m_Enabled: 1
--- !u!124 &419611144
Behaviour:
  m_ObjectHideFlags: 0
  m_CorrespondingSourceObject: {fileID: 0}
  m_PrefabInstance: {fileID: 0}
  m_PrefabAsset: {fileID: 0}
  m_GameObject: {fileID: 419611142}
  m_Enabled: 1
--- !u!20 &419611146
Camera:
  m_ObjectHideFlags: 0
  m_CorrespondingSourceObject: {fileID: 0}
  m_PrefabInstance: {fileID: 0}
  m_PrefabAsset: {fileID: 0}
  m_GameObject: {fileID: 419611142}
  m_Enabled: 1
  serializedVersion: 2
  m_ClearFlags: 1
  m_BackGroundColor: {r: 0.19215687, g: 0.3019608, b: 0.4745098, a: 0}
  m_projectionMatrixMode: 1
  m_GateFitMode: 2
  m_FOVAxisMode: 0
  m_SensorSize: {x: 36, y: 24}
  m_LensShift: {x: 0, y: 0}
  m_FocalLength: 50
  m_NormalizedViewPortRect:
    serializedVersion: 2
    x: 0
    y: 0
    width: 1
    height: 1
  near clip plane: 0.3
  far clip plane: 1000
  field of view: 60
  orthographic: 0
  orthographic size: 5
  m_Depth: -1
  m_CullingMask:
    serializedVersion: 2
    m_Bits: 4294967295
  m_RenderingPath: -1
  m_TargetTexture: {fileID: 0}
  m_TargetDisplay: 0
  m_TargetEye: 3
  m_HDR: 1
  m_AllowMSAA: 1
  m_AllowDynamicResolution: 0
  m_ForceIntoRT: 0
  m_OcclusionCulling: 1
  m_StereoConvergence: 10
  m_StereoSeparation: 0.022
--- !u!4 &419611147
Transform:
  m_ObjectHideFlags: 0
  m_CorrespondingSourceObject: {fileID: 0}
  m_PrefabInstance: {fileID: 0}
  m_PrefabAsset: {fileID: 0}
  m_GameObject: {fileID: 419611142}
  m_LocalRotation: {x: 0.070474915, y: -0.92434394, z: 0.20941202, w: 0.31107605}
  m_LocalPosition: {x: 21.65, y: 6.9, z: 19.9}
  m_LocalScale: {x: 1, y: 1, z: 1}
  m_Children: []
  m_Father: {fileID: 0}
  m_RootOrder: 0
  m_LocalEulerAnglesHint: {x: 25.53, y: -142.8, z: 0}
--- !u!1001 &498850829
PrefabInstance:
  m_ObjectHideFlags: 0
  serializedVersion: 2
  m_Modification:
    m_TransformParent: {fileID: 0}
    m_Modifications:
    - target: {fileID: 4305916051130742, guid: c5df3265d7b55f44bb3bdbf0c942e6ed, type: 3}
      propertyPath: m_RootOrder
      value: 15
      objectReference: {fileID: 0}
    - target: {fileID: 4305916051130742, guid: c5df3265d7b55f44bb3bdbf0c942e6ed, type: 3}
      propertyPath: m_LocalPosition.x
      value: 19.993322
      objectReference: {fileID: 0}
    - target: {fileID: 4305916051130742, guid: c5df3265d7b55f44bb3bdbf0c942e6ed, type: 3}
      propertyPath: m_LocalPosition.y
      value: 1.9212658e-19
      objectReference: {fileID: 0}
    - target: {fileID: 4305916051130742, guid: c5df3265d7b55f44bb3bdbf0c942e6ed, type: 3}
      propertyPath: m_LocalPosition.z
      value: -1.1075343
      objectReference: {fileID: 0}
    - target: {fileID: 4305916051130742, guid: c5df3265d7b55f44bb3bdbf0c942e6ed, type: 3}
      propertyPath: m_LocalRotation.w
      value: 1
      objectReference: {fileID: 0}
    - target: {fileID: 4305916051130742, guid: c5df3265d7b55f44bb3bdbf0c942e6ed, type: 3}
      propertyPath: m_LocalRotation.x
      value: 0
      objectReference: {fileID: 0}
    - target: {fileID: 4305916051130742, guid: c5df3265d7b55f44bb3bdbf0c942e6ed, type: 3}
      propertyPath: m_LocalRotation.y
      value: 0
      objectReference: {fileID: 0}
    - target: {fileID: 4305916051130742, guid: c5df3265d7b55f44bb3bdbf0c942e6ed, type: 3}
      propertyPath: m_LocalRotation.z
      value: 0
      objectReference: {fileID: 0}
    m_RemovedComponents: []
  m_SourcePrefab: {fileID: 100100000, guid: c5df3265d7b55f44bb3bdbf0c942e6ed, type: 3}
--- !u!1001 &621707244
PrefabInstance:
  m_ObjectHideFlags: 0
  serializedVersion: 2
  m_Modification:
    m_TransformParent: {fileID: 0}
    m_Modifications:
    - target: {fileID: 4961854772991274, guid: 4f190f3c667e18740967f7785eaabab6, type: 3}
      propertyPath: m_RootOrder
      value: 17
      objectReference: {fileID: 0}
    - target: {fileID: 4961854772991274, guid: 4f190f3c667e18740967f7785eaabab6, type: 3}
      propertyPath: m_LocalPosition.x
      value: 14.880112
      objectReference: {fileID: 0}
    - target: {fileID: 4961854772991274, guid: 4f190f3c667e18740967f7785eaabab6, type: 3}
      propertyPath: m_LocalPosition.y
      value: -3.8589232e-19
      objectReference: {fileID: 0}
    - target: {fileID: 4961854772991274, guid: 4f190f3c667e18740967f7785eaabab6, type: 3}
      propertyPath: m_LocalPosition.z
      value: 2.2245176
      objectReference: {fileID: 0}
    - target: {fileID: 4961854772991274, guid: 4f190f3c667e18740967f7785eaabab6, type: 3}
      propertyPath: m_LocalRotation.w
      value: 1
      objectReference: {fileID: 0}
    - target: {fileID: 4961854772991274, guid: 4f190f3c667e18740967f7785eaabab6, type: 3}
      propertyPath: m_LocalRotation.x
      value: 0
      objectReference: {fileID: 0}
    - target: {fileID: 4961854772991274, guid: 4f190f3c667e18740967f7785eaabab6, type: 3}
      propertyPath: m_LocalRotation.y
      value: 0
      objectReference: {fileID: 0}
    - target: {fileID: 4961854772991274, guid: 4f190f3c667e18740967f7785eaabab6, type: 3}
      propertyPath: m_LocalRotation.z
      value: 0
      objectReference: {fileID: 0}
    m_RemovedComponents: []
  m_SourcePrefab: {fileID: 100100000, guid: 4f190f3c667e18740967f7785eaabab6, type: 3}
--- !u!1001 &718376919
PrefabInstance:
  m_ObjectHideFlags: 0
  serializedVersion: 2
  m_Modification:
    m_TransformParent: {fileID: 0}
    m_Modifications:
    - target: {fileID: 4219862811686520, guid: aab64e2bf19a9754dae64a03bf79a424, type: 3}
      propertyPath: m_RootOrder
      value: 13
      objectReference: {fileID: 0}
    - target: {fileID: 4219862811686520, guid: aab64e2bf19a9754dae64a03bf79a424, type: 3}
      propertyPath: m_LocalPosition.x
      value: 12.730926
      objectReference: {fileID: 0}
    - target: {fileID: 4219862811686520, guid: aab64e2bf19a9754dae64a03bf79a424, type: 3}
      propertyPath: m_LocalPosition.y
      value: 1.12862e-18
      objectReference: {fileID: 0}
    - target: {fileID: 4219862811686520, guid: aab64e2bf19a9754dae64a03bf79a424, type: 3}
      propertyPath: m_LocalPosition.z
      value: -6.506051
      objectReference: {fileID: 0}
    - target: {fileID: 4219862811686520, guid: aab64e2bf19a9754dae64a03bf79a424, type: 3}
      propertyPath: m_LocalRotation.w
      value: 1
      objectReference: {fileID: 0}
    - target: {fileID: 4219862811686520, guid: aab64e2bf19a9754dae64a03bf79a424, type: 3}
      propertyPath: m_LocalRotation.x
      value: -0
      objectReference: {fileID: 0}
    - target: {fileID: 4219862811686520, guid: aab64e2bf19a9754dae64a03bf79a424, type: 3}
      propertyPath: m_LocalRotation.y
      value: -0
      objectReference: {fileID: 0}
    - target: {fileID: 4219862811686520, guid: aab64e2bf19a9754dae64a03bf79a424, type: 3}
      propertyPath: m_LocalRotation.z
      value: -0
      objectReference: {fileID: 0}
    m_RemovedComponents: []
  m_SourcePrefab: {fileID: 100100000, guid: aab64e2bf19a9754dae64a03bf79a424, type: 3}
--- !u!1 &726942427
GameObject:
  m_ObjectHideFlags: 0
  m_CorrespondingSourceObject: {fileID: 0}
  m_PrefabInstance: {fileID: 0}
  m_PrefabAsset: {fileID: 0}
  serializedVersion: 6
  m_Component:
  - component: {fileID: 726942431}
  - component: {fileID: 726942430}
  - component: {fileID: 726942429}
  - component: {fileID: 726942428}
  m_Layer: 0
  m_Name: Plane
  m_TagString: Untagged
  m_Icon: {fileID: 0}
  m_NavMeshLayer: 0
  m_StaticEditorFlags: 0
  m_IsActive: 1
--- !u!23 &726942428
MeshRenderer:
  m_ObjectHideFlags: 0
  m_CorrespondingSourceObject: {fileID: 0}
  m_PrefabInstance: {fileID: 0}
  m_PrefabAsset: {fileID: 0}
  m_GameObject: {fileID: 726942427}
  m_Enabled: 1
  m_CastShadows: 1
  m_ReceiveShadows: 1
  m_DynamicOccludee: 1
  m_MotionVectors: 1
  m_LightProbeUsage: 1
  m_ReflectionProbeUsage: 1
  m_RayTracingMode: 2
  m_RayTraceProcedural: 0
  m_RenderingLayerMask: 1
  m_RendererPriority: 0
  m_Materials:
  - {fileID: 10303, guid: 0000000000000000f000000000000000, type: 0}
  m_StaticBatchInfo:
    firstSubMesh: 0
    subMeshCount: 0
  m_StaticBatchRoot: {fileID: 0}
  m_ProbeAnchor: {fileID: 0}
  m_LightProbeVolumeOverride: {fileID: 0}
  m_ScaleInLightmap: 1
  m_ReceiveGI: 1
  m_PreserveUVs: 1
  m_IgnoreNormalsForChartDetection: 0
  m_ImportantGI: 0
  m_StitchLightmapSeams: 1
  m_SelectedEditorRenderState: 3
  m_MinimumChartSize: 4
  m_AutoUVMaxDistance: 0.5
  m_AutoUVMaxAngle: 89
  m_LightmapParameters: {fileID: 0}
  m_SortingLayerID: 0
  m_SortingLayer: 0
  m_SortingOrder: 0
  m_AdditionalVertexStreams: {fileID: 0}
--- !u!64 &726942429
MeshCollider:
  m_ObjectHideFlags: 0
  m_CorrespondingSourceObject: {fileID: 0}
  m_PrefabInstance: {fileID: 0}
  m_PrefabAsset: {fileID: 0}
  m_GameObject: {fileID: 726942427}
  m_Material: {fileID: 0}
  m_IsTrigger: 0
  m_Enabled: 1
  serializedVersion: 4
  m_Convex: 0
  m_CookingOptions: 30
  m_Mesh: {fileID: 10209, guid: 0000000000000000e000000000000000, type: 0}
--- !u!33 &726942430
MeshFilter:
  m_ObjectHideFlags: 0
  m_CorrespondingSourceObject: {fileID: 0}
  m_PrefabInstance: {fileID: 0}
  m_PrefabAsset: {fileID: 0}
  m_GameObject: {fileID: 726942427}
  m_Mesh: {fileID: 10209, guid: 0000000000000000e000000000000000, type: 0}
--- !u!4 &726942431
Transform:
  m_ObjectHideFlags: 0
  m_CorrespondingSourceObject: {fileID: 0}
  m_PrefabInstance: {fileID: 0}
  m_PrefabAsset: {fileID: 0}
  m_GameObject: {fileID: 726942427}
  m_LocalRotation: {x: 0, y: 0, z: 0, w: 1}
  m_LocalPosition: {x: 0, y: 0, z: 0}
  m_LocalScale: {x: 128, y: 1, z: 128}
  m_Children: []
  m_Father: {fileID: 0}
  m_RootOrder: 32
  m_LocalEulerAnglesHint: {x: 0, y: 0, z: 0}
--- !u!1001 &792766132
PrefabInstance:
  m_ObjectHideFlags: 0
  serializedVersion: 2
  m_Modification:
    m_TransformParent: {fileID: 0}
    m_Modifications:
    - target: {fileID: 4128093385605906, guid: de0664e8af3cc80458f4f1153565b524, type: 3}
      propertyPath: m_RootOrder
      value: 19
      objectReference: {fileID: 0}
    - target: {fileID: 4128093385605906, guid: de0664e8af3cc80458f4f1153565b524, type: 3}
      propertyPath: m_LocalPosition.x
      value: 9.188763
      objectReference: {fileID: 0}
    - target: {fileID: 4128093385605906, guid: de0664e8af3cc80458f4f1153565b524, type: 3}
      propertyPath: m_LocalPosition.y
      value: -9.042539e-19
      objectReference: {fileID: 0}
    - target: {fileID: 4128093385605906, guid: de0664e8af3cc80458f4f1153565b524, type: 3}
      propertyPath: m_LocalPosition.z
      value: 5.212669
      objectReference: {fileID: 0}
    - target: {fileID: 4128093385605906, guid: de0664e8af3cc80458f4f1153565b524, type: 3}
      propertyPath: m_LocalRotation.w
      value: 1
      objectReference: {fileID: 0}
    - target: {fileID: 4128093385605906, guid: de0664e8af3cc80458f4f1153565b524, type: 3}
      propertyPath: m_LocalRotation.x
      value: 0
      objectReference: {fileID: 0}
    - target: {fileID: 4128093385605906, guid: de0664e8af3cc80458f4f1153565b524, type: 3}
      propertyPath: m_LocalRotation.y
      value: 0
      objectReference: {fileID: 0}
    - target: {fileID: 4128093385605906, guid: de0664e8af3cc80458f4f1153565b524, type: 3}
      propertyPath: m_LocalRotation.z
      value: 0
      objectReference: {fileID: 0}
    m_RemovedComponents: []
  m_SourcePrefab: {fileID: 100100000, guid: de0664e8af3cc80458f4f1153565b524, type: 3}
--- !u!1001 &833677362
PrefabInstance:
  m_ObjectHideFlags: 0
  serializedVersion: 2
  m_Modification:
    m_TransformParent: {fileID: 0}
    m_Modifications:
    - target: {fileID: 4763037581532276, guid: ac9b34f61c042ed45b9d4c7da1e4cd93, type: 3}
      propertyPath: m_RootOrder
      value: 25
      objectReference: {fileID: 0}
    - target: {fileID: 4763037581532276, guid: ac9b34f61c042ed45b9d4c7da1e4cd93, type: 3}
      propertyPath: m_LocalPosition.x
      value: 3.6563795
      objectReference: {fileID: 0}
    - target: {fileID: 4763037581532276, guid: ac9b34f61c042ed45b9d4c7da1e4cd93, type: 3}
      propertyPath: m_LocalPosition.y
      value: -2.166996e-18
      objectReference: {fileID: 0}
    - target: {fileID: 4763037581532276, guid: ac9b34f61c042ed45b9d4c7da1e4cd93, type: 3}
      propertyPath: m_LocalPosition.z
      value: 12.491881
      objectReference: {fileID: 0}
    - target: {fileID: 4763037581532276, guid: ac9b34f61c042ed45b9d4c7da1e4cd93, type: 3}
      propertyPath: m_LocalRotation.w
      value: 1
      objectReference: {fileID: 0}
    - target: {fileID: 4763037581532276, guid: ac9b34f61c042ed45b9d4c7da1e4cd93, type: 3}
      propertyPath: m_LocalRotation.x
      value: 0
      objectReference: {fileID: 0}
    - target: {fileID: 4763037581532276, guid: ac9b34f61c042ed45b9d4c7da1e4cd93, type: 3}
      propertyPath: m_LocalRotation.y
      value: 0
      objectReference: {fileID: 0}
    - target: {fileID: 4763037581532276, guid: ac9b34f61c042ed45b9d4c7da1e4cd93, type: 3}
      propertyPath: m_LocalRotation.z
      value: 0
      objectReference: {fileID: 0}
    m_RemovedComponents: []
  m_SourcePrefab: {fileID: 100100000, guid: ac9b34f61c042ed45b9d4c7da1e4cd93, type: 3}
--- !u!1001 &861079885
PrefabInstance:
  m_ObjectHideFlags: 0
  serializedVersion: 2
  m_Modification:
    m_TransformParent: {fileID: 0}
    m_Modifications:
    - target: {fileID: 4127160774268628, guid: 9f23c531fb46abf4aa1af8c61fdfb18c, type: 3}
      propertyPath: m_RootOrder
      value: 26
      objectReference: {fileID: 0}
    - target: {fileID: 4127160774268628, guid: 9f23c531fb46abf4aa1af8c61fdfb18c, type: 3}
      propertyPath: m_LocalPosition.x
      value: -11.029611
      objectReference: {fileID: 0}
    - target: {fileID: 4127160774268628, guid: 9f23c531fb46abf4aa1af8c61fdfb18c, type: 3}
      propertyPath: m_LocalPosition.y
      value: -8.258971e-19
      objectReference: {fileID: 0}
    - target: {fileID: 4127160774268628, guid: 9f23c531fb46abf4aa1af8c61fdfb18c, type: 3}
      propertyPath: m_LocalPosition.z
      value: 4.7609725
      objectReference: {fileID: 0}
    - target: {fileID: 4127160774268628, guid: 9f23c531fb46abf4aa1af8c61fdfb18c, type: 3}
      propertyPath: m_LocalRotation.w
      value: 1
      objectReference: {fileID: 0}
    - target: {fileID: 4127160774268628, guid: 9f23c531fb46abf4aa1af8c61fdfb18c, type: 3}
      propertyPath: m_LocalRotation.x
      value: 0
      objectReference: {fileID: 0}
    - target: {fileID: 4127160774268628, guid: 9f23c531fb46abf4aa1af8c61fdfb18c, type: 3}
      propertyPath: m_LocalRotation.y
      value: 0
      objectReference: {fileID: 0}
    - target: {fileID: 4127160774268628, guid: 9f23c531fb46abf4aa1af8c61fdfb18c, type: 3}
      propertyPath: m_LocalRotation.z
      value: 0
      objectReference: {fileID: 0}
    m_RemovedComponents: []
  m_SourcePrefab: {fileID: 100100000, guid: 9f23c531fb46abf4aa1af8c61fdfb18c, type: 3}
--- !u!1001 &867602171
PrefabInstance:
  m_ObjectHideFlags: 0
  serializedVersion: 2
  m_Modification:
    m_TransformParent: {fileID: 0}
    m_Modifications:
    - target: {fileID: 4938465886421710, guid: 566938e064390544b84e4d36dc2f8cbd, type: 3}
      propertyPath: m_RootOrder
      value: 28
      objectReference: {fileID: 0}
    - target: {fileID: 4938465886421710, guid: 566938e064390544b84e4d36dc2f8cbd, type: 3}
      propertyPath: m_LocalPosition.x
      value: -5.2246876
      objectReference: {fileID: 0}
    - target: {fileID: 4938465886421710, guid: 566938e064390544b84e4d36dc2f8cbd, type: 3}
      propertyPath: m_LocalPosition.y
      value: -3.6812174e-19
      objectReference: {fileID: 0}
    - target: {fileID: 4938465886421710, guid: 566938e064390544b84e4d36dc2f8cbd, type: 3}
      propertyPath: m_LocalPosition.z
      value: 2.1220772
      objectReference: {fileID: 0}
    - target: {fileID: 4938465886421710, guid: 566938e064390544b84e4d36dc2f8cbd, type: 3}
      propertyPath: m_LocalRotation.w
      value: 1
      objectReference: {fileID: 0}
    - target: {fileID: 4938465886421710, guid: 566938e064390544b84e4d36dc2f8cbd, type: 3}
      propertyPath: m_LocalRotation.x
      value: 0
      objectReference: {fileID: 0}
    - target: {fileID: 4938465886421710, guid: 566938e064390544b84e4d36dc2f8cbd, type: 3}
      propertyPath: m_LocalRotation.y
      value: 0
      objectReference: {fileID: 0}
    - target: {fileID: 4938465886421710, guid: 566938e064390544b84e4d36dc2f8cbd, type: 3}
      propertyPath: m_LocalRotation.z
      value: 0
      objectReference: {fileID: 0}
    m_RemovedComponents: []
  m_SourcePrefab: {fileID: 100100000, guid: 566938e064390544b84e4d36dc2f8cbd, type: 3}
--- !u!1001 &884563761
PrefabInstance:
  m_ObjectHideFlags: 0
  serializedVersion: 2
  m_Modification:
    m_TransformParent: {fileID: 0}
    m_Modifications:
    - target: {fileID: 4439258290378116, guid: a8d7b2e9fb1e4f943b088dfbc8b9ef6f, type: 3}
      propertyPath: m_RootOrder
      value: 10
      objectReference: {fileID: 0}
    - target: {fileID: 4439258290378116, guid: a8d7b2e9fb1e4f943b088dfbc8b9ef6f, type: 3}
      propertyPath: m_LocalPosition.x
      value: 18.14559
      objectReference: {fileID: 0}
    - target: {fileID: 4439258290378116, guid: a8d7b2e9fb1e4f943b088dfbc8b9ef6f, type: 3}
      propertyPath: m_LocalPosition.y
      value: 1.734569e-18
      objectReference: {fileID: 0}
    - target: {fileID: 4439258290378116, guid: a8d7b2e9fb1e4f943b088dfbc8b9ef6f, type: 3}
      propertyPath: m_LocalPosition.z
      value: -9.999109
      objectReference: {fileID: 0}
    - target: {fileID: 4439258290378116, guid: a8d7b2e9fb1e4f943b088dfbc8b9ef6f, type: 3}
      propertyPath: m_LocalRotation.w
      value: 1
      objectReference: {fileID: 0}
    - target: {fileID: 4439258290378116, guid: a8d7b2e9fb1e4f943b088dfbc8b9ef6f, type: 3}
      propertyPath: m_LocalRotation.x
      value: -0
      objectReference: {fileID: 0}
    - target: {fileID: 4439258290378116, guid: a8d7b2e9fb1e4f943b088dfbc8b9ef6f, type: 3}
      propertyPath: m_LocalRotation.y
      value: -0
      objectReference: {fileID: 0}
    - target: {fileID: 4439258290378116, guid: a8d7b2e9fb1e4f943b088dfbc8b9ef6f, type: 3}
      propertyPath: m_LocalRotation.z
      value: -0
      objectReference: {fileID: 0}
    m_RemovedComponents: []
  m_SourcePrefab: {fileID: 100100000, guid: a8d7b2e9fb1e4f943b088dfbc8b9ef6f, type: 3}
--- !u!1001 &913729961
PrefabInstance:
  m_ObjectHideFlags: 0
  serializedVersion: 2
  m_Modification:
    m_TransformParent: {fileID: 0}
    m_Modifications:
    - target: {fileID: 4137596680692592, guid: b197f5263aa27fe488ecd6fa7f97039b, type: 3}
      propertyPath: m_RootOrder
      value: 24
      objectReference: {fileID: 0}
    - target: {fileID: 4137596680692592, guid: b197f5263aa27fe488ecd6fa7f97039b, type: 3}
      propertyPath: m_LocalPosition.x
      value: 0.73858446
      objectReference: {fileID: 0}
    - target: {fileID: 4137596680692592, guid: b197f5263aa27fe488ecd6fa7f97039b, type: 3}
      propertyPath: m_LocalPosition.y
      value: -2.4045346e-18
      objectReference: {fileID: 0}
    - target: {fileID: 4137596680692592, guid: b197f5263aa27fe488ecd6fa7f97039b, type: 3}
      propertyPath: m_LocalPosition.z
      value: 13.861197
      objectReference: {fileID: 0}
    - target: {fileID: 4137596680692592, guid: b197f5263aa27fe488ecd6fa7f97039b, type: 3}
      propertyPath: m_LocalRotation.w
      value: 1
      objectReference: {fileID: 0}
    - target: {fileID: 4137596680692592, guid: b197f5263aa27fe488ecd6fa7f97039b, type: 3}
      propertyPath: m_LocalRotation.x
      value: 0
      objectReference: {fileID: 0}
    - target: {fileID: 4137596680692592, guid: b197f5263aa27fe488ecd6fa7f97039b, type: 3}
      propertyPath: m_LocalRotation.y
      value: 0
      objectReference: {fileID: 0}
    - target: {fileID: 4137596680692592, guid: b197f5263aa27fe488ecd6fa7f97039b, type: 3}
      propertyPath: m_LocalRotation.z
      value: 0
      objectReference: {fileID: 0}
    m_RemovedComponents: []
  m_SourcePrefab: {fileID: 100100000, guid: b197f5263aa27fe488ecd6fa7f97039b, type: 3}
--- !u!1001 &936583304
PrefabInstance:
  m_ObjectHideFlags: 0
  serializedVersion: 2
  m_Modification:
    m_TransformParent: {fileID: 0}
    m_Modifications:
    - target: {fileID: 4022409965980514, guid: 7cab82116a8696d4fb48acb33b5782ec, type: 3}
      propertyPath: m_RootOrder
      value: 1
      objectReference: {fileID: 0}
    - target: {fileID: 4022409965980514, guid: 7cab82116a8696d4fb48acb33b5782ec, type: 3}
      propertyPath: m_LocalPosition.x
      value: 9.776398
      objectReference: {fileID: 0}
    - target: {fileID: 4022409965980514, guid: 7cab82116a8696d4fb48acb33b5782ec, type: 3}
      propertyPath: m_LocalPosition.y
      value: -2.9245663e-18
      objectReference: {fileID: 0}
    - target: {fileID: 4022409965980514, guid: 7cab82116a8696d4fb48acb33b5782ec, type: 3}
      propertyPath: m_LocalPosition.z
      value: 16.858976
      objectReference: {fileID: 0}
    - target: {fileID: 4022409965980514, guid: 7cab82116a8696d4fb48acb33b5782ec, type: 3}
      propertyPath: m_LocalRotation.w
      value: 1
      objectReference: {fileID: 0}
    - target: {fileID: 4022409965980514, guid: 7cab82116a8696d4fb48acb33b5782ec, type: 3}
      propertyPath: m_LocalRotation.x
      value: 0
      objectReference: {fileID: 0}
    - target: {fileID: 4022409965980514, guid: 7cab82116a8696d4fb48acb33b5782ec, type: 3}
      propertyPath: m_LocalRotation.y
      value: 0
      objectReference: {fileID: 0}
    - target: {fileID: 4022409965980514, guid: 7cab82116a8696d4fb48acb33b5782ec, type: 3}
      propertyPath: m_LocalRotation.z
      value: 0
      objectReference: {fileID: 0}
    m_RemovedComponents: []
  m_SourcePrefab: {fileID: 100100000, guid: 7cab82116a8696d4fb48acb33b5782ec, type: 3}
--- !u!1001 &937736515
PrefabInstance:
  m_ObjectHideFlags: 0
  serializedVersion: 2
  m_Modification:
    m_TransformParent: {fileID: 0}
    m_Modifications:
    - target: {fileID: 4408704584130218, guid: e3aa5097556f0d34f8b9f07a0146fca7, type: 3}
      propertyPath: m_RootOrder
      value: 16
      objectReference: {fileID: 0}
    - target: {fileID: 4408704584130218, guid: e3aa5097556f0d34f8b9f07a0146fca7, type: 3}
      propertyPath: m_LocalPosition.x
      value: 17.483992
      objectReference: {fileID: 0}
    - target: {fileID: 4408704584130218, guid: e3aa5097556f0d34f8b9f07a0146fca7, type: 3}
      propertyPath: m_LocalPosition.y
      value: -1.0824683e-19
      objectReference: {fileID: 0}
    - target: {fileID: 4408704584130218, guid: e3aa5097556f0d34f8b9f07a0146fca7, type: 3}
      propertyPath: m_LocalPosition.z
      value: 0.6240005
      objectReference: {fileID: 0}
    - target: {fileID: 4408704584130218, guid: e3aa5097556f0d34f8b9f07a0146fca7, type: 3}
      propertyPath: m_LocalRotation.w
      value: 1
      objectReference: {fileID: 0}
    - target: {fileID: 4408704584130218, guid: e3aa5097556f0d34f8b9f07a0146fca7, type: 3}
      propertyPath: m_LocalRotation.x
      value: 0
      objectReference: {fileID: 0}
    - target: {fileID: 4408704584130218, guid: e3aa5097556f0d34f8b9f07a0146fca7, type: 3}
      propertyPath: m_LocalRotation.y
      value: 0
      objectReference: {fileID: 0}
    - target: {fileID: 4408704584130218, guid: e3aa5097556f0d34f8b9f07a0146fca7, type: 3}
      propertyPath: m_LocalRotation.z
      value: 0
      objectReference: {fileID: 0}
    m_RemovedComponents: []
  m_SourcePrefab: {fileID: 100100000, guid: e3aa5097556f0d34f8b9f07a0146fca7, type: 3}
--- !u!1001 &946673007
PrefabInstance:
  m_ObjectHideFlags: 0
  serializedVersion: 2
  m_Modification:
    m_TransformParent: {fileID: 0}
    m_Modifications:
    - target: {fileID: 4487087678007432, guid: bb1b39381246d6540b408974d9159e6a, type: 3}
      propertyPath: m_RootOrder
      value: 12
      objectReference: {fileID: 0}
    - target: {fileID: 4487087678007432, guid: bb1b39381246d6540b408974d9159e6a, type: 3}
      propertyPath: m_LocalPosition.x
      value: 9.889274
      objectReference: {fileID: 0}
    - target: {fileID: 4487087678007432, guid: bb1b39381246d6540b408974d9159e6a, type: 3}
      propertyPath: m_LocalPosition.y
      value: 8.1712577e-19
      objectReference: {fileID: 0}
    - target: {fileID: 4487087678007432, guid: bb1b39381246d6540b408974d9159e6a, type: 3}
      propertyPath: m_LocalPosition.z
      value: -4.710409
      objectReference: {fileID: 0}
    - target: {fileID: 4487087678007432, guid: bb1b39381246d6540b408974d9159e6a, type: 3}
      propertyPath: m_LocalRotation.w
      value: 1
      objectReference: {fileID: 0}
    - target: {fileID: 4487087678007432, guid: bb1b39381246d6540b408974d9159e6a, type: 3}
      propertyPath: m_LocalRotation.x
      value: -0
      objectReference: {fileID: 0}
    - target: {fileID: 4487087678007432, guid: bb1b39381246d6540b408974d9159e6a, type: 3}
      propertyPath: m_LocalRotation.y
      value: -0
      objectReference: {fileID: 0}
    - target: {fileID: 4487087678007432, guid: bb1b39381246d6540b408974d9159e6a, type: 3}
      propertyPath: m_LocalRotation.z
      value: -0
      objectReference: {fileID: 0}
    m_RemovedComponents: []
  m_SourcePrefab: {fileID: 100100000, guid: bb1b39381246d6540b408974d9159e6a, type: 3}
--- !u!1001 &1107588365
PrefabInstance:
  m_ObjectHideFlags: 0
  serializedVersion: 2
  m_Modification:
    m_TransformParent: {fileID: 0}
    m_Modifications:
    - target: {fileID: 4972281966191748, guid: 266ced9dec048eb4ba79de043b69506d, type: 3}
      propertyPath: m_RootOrder
      value: 18
      objectReference: {fileID: 0}
    - target: {fileID: 4972281966191748, guid: 266ced9dec048eb4ba79de043b69506d, type: 3}
      propertyPath: m_LocalPosition.x
      value: 5.885734
      objectReference: {fileID: 0}
    - target: {fileID: 4972281966191748, guid: 266ced9dec048eb4ba79de043b69506d, type: 3}
      propertyPath: m_LocalPosition.y
      value: -1.1442196e-18
      objectReference: {fileID: 0}
    - target: {fileID: 4972281966191748, guid: 266ced9dec048eb4ba79de043b69506d, type: 3}
      propertyPath: m_LocalPosition.z
      value: 6.5959773
      objectReference: {fileID: 0}
    - target: {fileID: 4972281966191748, guid: 266ced9dec048eb4ba79de043b69506d, type: 3}
      propertyPath: m_LocalRotation.w
      value: 1
      objectReference: {fileID: 0}
    - target: {fileID: 4972281966191748, guid: 266ced9dec048eb4ba79de043b69506d, type: 3}
      propertyPath: m_LocalRotation.x
      value: 0
      objectReference: {fileID: 0}
    - target: {fileID: 4972281966191748, guid: 266ced9dec048eb4ba79de043b69506d, type: 3}
      propertyPath: m_LocalRotation.y
      value: 0
      objectReference: {fileID: 0}
    - target: {fileID: 4972281966191748, guid: 266ced9dec048eb4ba79de043b69506d, type: 3}
      propertyPath: m_LocalRotation.z
      value: 0
      objectReference: {fileID: 0}
    m_RemovedComponents: []
  m_SourcePrefab: {fileID: 100100000, guid: 266ced9dec048eb4ba79de043b69506d, type: 3}
--- !u!1001 &1118201858
PrefabInstance:
  m_ObjectHideFlags: 0
  serializedVersion: 2
  m_Modification:
    m_TransformParent: {fileID: 0}
    m_Modifications:
    - target: {fileID: 4061321634944012, guid: de98251347cb8a8478def5b3457f2e95, type: 3}
      propertyPath: m_RootOrder
      value: 8
      objectReference: {fileID: 0}
    - target: {fileID: 4061321634944012, guid: de98251347cb8a8478def5b3457f2e95, type: 3}
      propertyPath: m_LocalPosition.x
      value: 2.7048643
      objectReference: {fileID: 0}
    - target: {fileID: 4061321634944012, guid: de98251347cb8a8478def5b3457f2e95, type: 3}
      propertyPath: m_LocalPosition.y
      value: 1.6774885e-18
      objectReference: {fileID: 0}
    - target: {fileID: 4061321634944012, guid: de98251347cb8a8478def5b3457f2e95, type: 3}
      propertyPath: m_LocalPosition.z
      value: -9.670062
      objectReference: {fileID: 0}
    - target: {fileID: 4061321634944012, guid: de98251347cb8a8478def5b3457f2e95, type: 3}
      propertyPath: m_LocalRotation.w
      value: 1
      objectReference: {fileID: 0}
    - target: {fileID: 4061321634944012, guid: de98251347cb8a8478def5b3457f2e95, type: 3}
      propertyPath: m_LocalRotation.x
      value: 0
      objectReference: {fileID: 0}
    - target: {fileID: 4061321634944012, guid: de98251347cb8a8478def5b3457f2e95, type: 3}
      propertyPath: m_LocalRotation.y
      value: 0
      objectReference: {fileID: 0}
    - target: {fileID: 4061321634944012, guid: de98251347cb8a8478def5b3457f2e95, type: 3}
      propertyPath: m_LocalRotation.z
      value: 0
      objectReference: {fileID: 0}
    m_RemovedComponents: []
  m_SourcePrefab: {fileID: 100100000, guid: de98251347cb8a8478def5b3457f2e95, type: 3}
--- !u!1001 &1230278574
PrefabInstance:
  m_ObjectHideFlags: 0
  serializedVersion: 2
  m_Modification:
    m_TransformParent: {fileID: 0}
    m_Modifications:
    - target: {fileID: 4670097530433654, guid: 540a37f296791904c987c7ffb747ae2d, type: 3}
      propertyPath: m_RootOrder
      value: 22
      objectReference: {fileID: 0}
    - target: {fileID: 4670097530433654, guid: 540a37f296791904c987c7ffb747ae2d, type: 3}
      propertyPath: m_LocalPosition.x
      value: -4.807027
      objectReference: {fileID: 0}
    - target: {fileID: 4670097530433654, guid: 540a37f296791904c987c7ffb747ae2d, type: 3}
      propertyPath: m_LocalPosition.y
      value: -2.9287558e-18
      objectReference: {fileID: 0}
    - target: {fileID: 4670097530433654, guid: 540a37f296791904c987c7ffb747ae2d, type: 3}
      propertyPath: m_LocalPosition.z
      value: 16.883127
      objectReference: {fileID: 0}
    - target: {fileID: 4670097530433654, guid: 540a37f296791904c987c7ffb747ae2d, type: 3}
      propertyPath: m_LocalRotation.w
      value: 1
      objectReference: {fileID: 0}
    - target: {fileID: 4670097530433654, guid: 540a37f296791904c987c7ffb747ae2d, type: 3}
      propertyPath: m_LocalRotation.x
      value: 0
      objectReference: {fileID: 0}
    - target: {fileID: 4670097530433654, guid: 540a37f296791904c987c7ffb747ae2d, type: 3}
      propertyPath: m_LocalRotation.y
      value: 0
      objectReference: {fileID: 0}
    - target: {fileID: 4670097530433654, guid: 540a37f296791904c987c7ffb747ae2d, type: 3}
      propertyPath: m_LocalRotation.z
      value: 0
      objectReference: {fileID: 0}
    m_RemovedComponents: []
  m_SourcePrefab: {fileID: 100100000, guid: 540a37f296791904c987c7ffb747ae2d, type: 3}
--- !u!1001 &1437241168
PrefabInstance:
  m_ObjectHideFlags: 0
  serializedVersion: 2
  m_Modification:
    m_TransformParent: {fileID: 0}
    m_Modifications:
    - target: {fileID: 4710085554529074, guid: a59a6677665c95e4b941b9c87a1284b0, type: 3}
      propertyPath: m_RootOrder
      value: 3
      objectReference: {fileID: 0}
    - target: {fileID: 4710085554529074, guid: a59a6677665c95e4b941b9c87a1284b0, type: 3}
      propertyPath: m_LocalPosition.x
      value: 15.26474
      objectReference: {fileID: 0}
    - target: {fileID: 4710085554529074, guid: a59a6677665c95e4b941b9c87a1284b0, type: 3}
      propertyPath: m_LocalPosition.y
      value: -2.1377073e-18
      objectReference: {fileID: 0}
    - target: {fileID: 4710085554529074, guid: a59a6677665c95e4b941b9c87a1284b0, type: 3}
      propertyPath: m_LocalPosition.z
      value: 12.323043
      objectReference: {fileID: 0}
    - target: {fileID: 4710085554529074, guid: a59a6677665c95e4b941b9c87a1284b0, type: 3}
      propertyPath: m_LocalRotation.w
      value: 1
      objectReference: {fileID: 0}
    - target: {fileID: 4710085554529074, guid: a59a6677665c95e4b941b9c87a1284b0, type: 3}
      propertyPath: m_LocalRotation.x
      value: 0
      objectReference: {fileID: 0}
    - target: {fileID: 4710085554529074, guid: a59a6677665c95e4b941b9c87a1284b0, type: 3}
      propertyPath: m_LocalRotation.y
      value: 0
      objectReference: {fileID: 0}
    - target: {fileID: 4710085554529074, guid: a59a6677665c95e4b941b9c87a1284b0, type: 3}
      propertyPath: m_LocalRotation.z
      value: 0
      objectReference: {fileID: 0}
    m_RemovedComponents: []
  m_SourcePrefab: {fileID: 100100000, guid: a59a6677665c95e4b941b9c87a1284b0, type: 3}
--- !u!1001 &1650912206
PrefabInstance:
  m_ObjectHideFlags: 0
  serializedVersion: 2
  m_Modification:
    m_TransformParent: {fileID: 0}
    m_Modifications:
    - target: {fileID: 4335698301457616, guid: fb51c78cbf83c66479120b593483ae84, type: 3}
      propertyPath: m_RootOrder
      value: 23
      objectReference: {fileID: 0}
    - target: {fileID: 4335698301457616, guid: fb51c78cbf83c66479120b593483ae84, type: 3}
      propertyPath: m_LocalPosition.x
      value: -1.8832704
      objectReference: {fileID: 0}
    - target: {fileID: 4335698301457616, guid: fb51c78cbf83c66479120b593483ae84, type: 3}
      propertyPath: m_LocalPosition.y
      value: -2.7243437e-18
      objectReference: {fileID: 0}
    - target: {fileID: 4335698301457616, guid: fb51c78cbf83c66479120b593483ae84, type: 3}
      propertyPath: m_LocalPosition.z
      value: 15.704772
      objectReference: {fileID: 0}
    - target: {fileID: 4335698301457616, guid: fb51c78cbf83c66479120b593483ae84, type: 3}
      propertyPath: m_LocalRotation.w
      value: 1
      objectReference: {fileID: 0}
    - target: {fileID: 4335698301457616, guid: fb51c78cbf83c66479120b593483ae84, type: 3}
      propertyPath: m_LocalRotation.x
      value: 0
      objectReference: {fileID: 0}
    - target: {fileID: 4335698301457616, guid: fb51c78cbf83c66479120b593483ae84, type: 3}
      propertyPath: m_LocalRotation.y
      value: 0
      objectReference: {fileID: 0}
    - target: {fileID: 4335698301457616, guid: fb51c78cbf83c66479120b593483ae84, type: 3}
      propertyPath: m_LocalRotation.z
      value: 0
      objectReference: {fileID: 0}
    m_RemovedComponents: []
  m_SourcePrefab: {fileID: 100100000, guid: fb51c78cbf83c66479120b593483ae84, type: 3}
--- !u!1001 &1750555539
PrefabInstance:
  m_ObjectHideFlags: 0
  serializedVersion: 2
  m_Modification:
    m_TransformParent: {fileID: 0}
    m_Modifications:
    - target: {fileID: 4987367166110978, guid: f91336dfcda69084db008c3df49bbcee, type: 3}
      propertyPath: m_RootOrder
      value: 6
      objectReference: {fileID: 0}
    - target: {fileID: 4987367166110978, guid: f91336dfcda69084db008c3df49bbcee, type: 3}
      propertyPath: m_LocalPosition.x
      value: 9.626479
      objectReference: {fileID: 0}
    - target: {fileID: 4987367166110978, guid: f91336dfcda69084db008c3df49bbcee, type: 3}
      propertyPath: m_LocalPosition.y
      value: 2.208252e-18
      objectReference: {fileID: 0}
    - target: {fileID: 4987367166110978, guid: f91336dfcda69084db008c3df49bbcee, type: 3}
      propertyPath: m_LocalPosition.z
      value: -12.729706
      objectReference: {fileID: 0}
    - target: {fileID: 4987367166110978, guid: f91336dfcda69084db008c3df49bbcee, type: 3}
      propertyPath: m_LocalRotation.w
      value: 1
      objectReference: {fileID: 0}
    - target: {fileID: 4987367166110978, guid: f91336dfcda69084db008c3df49bbcee, type: 3}
      propertyPath: m_LocalRotation.x
      value: 0
      objectReference: {fileID: 0}
    - target: {fileID: 4987367166110978, guid: f91336dfcda69084db008c3df49bbcee, type: 3}
      propertyPath: m_LocalRotation.y
      value: 0
      objectReference: {fileID: 0}
    - target: {fileID: 4987367166110978, guid: f91336dfcda69084db008c3df49bbcee, type: 3}
      propertyPath: m_LocalRotation.z
      value: 0
      objectReference: {fileID: 0}
    m_RemovedComponents: []
  m_SourcePrefab: {fileID: 100100000, guid: f91336dfcda69084db008c3df49bbcee, type: 3}
--- !u!1001 &1802932147
PrefabInstance:
  m_ObjectHideFlags: 0
  serializedVersion: 2
  m_Modification:
    m_TransformParent: {fileID: 0}
    m_Modifications:
    - target: {fileID: 4675936213972560, guid: 2e5efb68ad2afcd45ba8f0193e8b58e7, type: 3}
      propertyPath: m_RootOrder
      value: 30
      objectReference: {fileID: 0}
    - target: {fileID: 4675936213972560, guid: 2e5efb68ad2afcd45ba8f0193e8b58e7, type: 3}
      propertyPath: m_LocalPosition.x
      value: 0
      objectReference: {fileID: 0}
    - target: {fileID: 4675936213972560, guid: 2e5efb68ad2afcd45ba8f0193e8b58e7, type: 3}
      propertyPath: m_LocalPosition.y
      value: 0
      objectReference: {fileID: 0}
    - target: {fileID: 4675936213972560, guid: 2e5efb68ad2afcd45ba8f0193e8b58e7, type: 3}
      propertyPath: m_LocalPosition.z
      value: 0
      objectReference: {fileID: 0}
    - target: {fileID: 4675936213972560, guid: 2e5efb68ad2afcd45ba8f0193e8b58e7, type: 3}
      propertyPath: m_LocalRotation.w
      value: 1
      objectReference: {fileID: 0}
    - target: {fileID: 4675936213972560, guid: 2e5efb68ad2afcd45ba8f0193e8b58e7, type: 3}
      propertyPath: m_LocalRotation.x
      value: 0
      objectReference: {fileID: 0}
    - target: {fileID: 4675936213972560, guid: 2e5efb68ad2afcd45ba8f0193e8b58e7, type: 3}
      propertyPath: m_LocalRotation.y
      value: 0
      objectReference: {fileID: 0}
    - target: {fileID: 4675936213972560, guid: 2e5efb68ad2afcd45ba8f0193e8b58e7, type: 3}
      propertyPath: m_LocalRotation.z
      value: 0
      objectReference: {fileID: 0}
    m_RemovedComponents: []
  m_SourcePrefab: {fileID: 100100000, guid: 2e5efb68ad2afcd45ba8f0193e8b58e7, type: 3}
--- !u!1001 &1820792953
PrefabInstance:
  m_ObjectHideFlags: 0
  serializedVersion: 2
  m_Modification:
    m_TransformParent: {fileID: 0}
    m_Modifications:
    - target: {fileID: 4633429270498150, guid: 8eee684eb534b2645b57fd47fff1dbbb, type: 3}
      propertyPath: m_RootOrder
      value: 27
      objectReference: {fileID: 0}
    - target: {fileID: 4633429270498150, guid: 8eee684eb534b2645b57fd47fff1dbbb, type: 3}
      propertyPath: m_LocalPosition.x
      value: -8.241823
      objectReference: {fileID: 0}
    - target: {fileID: 4633429270498150, guid: 8eee684eb534b2645b57fd47fff1dbbb, type: 3}
      propertyPath: m_LocalPosition.y
      value: -6.0641996e-19
      objectReference: {fileID: 0}
    - target: {fileID: 4633429270498150, guid: 8eee684eb534b2645b57fd47fff1dbbb, type: 3}
      propertyPath: m_LocalPosition.z
      value: 3.495773
      objectReference: {fileID: 0}
    - target: {fileID: 4633429270498150, guid: 8eee684eb534b2645b57fd47fff1dbbb, type: 3}
      propertyPath: m_LocalRotation.w
      value: 1
      objectReference: {fileID: 0}
    - target: {fileID: 4633429270498150, guid: 8eee684eb534b2645b57fd47fff1dbbb, type: 3}
      propertyPath: m_LocalRotation.x
      value: 0
      objectReference: {fileID: 0}
    - target: {fileID: 4633429270498150, guid: 8eee684eb534b2645b57fd47fff1dbbb, type: 3}
      propertyPath: m_LocalRotation.y
      value: 0
      objectReference: {fileID: 0}
    - target: {fileID: 4633429270498150, guid: 8eee684eb534b2645b57fd47fff1dbbb, type: 3}
      propertyPath: m_LocalRotation.z
      value: 0
      objectReference: {fileID: 0}
    m_RemovedComponents: []
  m_SourcePrefab: {fileID: 100100000, guid: 8eee684eb534b2645b57fd47fff1dbbb, type: 3}
--- !u!1 &1852574474
GameObject:
  m_ObjectHideFlags: 0
  m_CorrespondingSourceObject: {fileID: 0}
  m_PrefabInstance: {fileID: 0}
  m_PrefabAsset: {fileID: 0}
  serializedVersion: 6
  m_Component:
  - component: {fileID: 1852574476}
  - component: {fileID: 1852574475}
  m_Layer: 0
  m_Name: Directional Light
  m_TagString: Untagged
  m_Icon: {fileID: 0}
  m_NavMeshLayer: 0
  m_StaticEditorFlags: 0
  m_IsActive: 1
--- !u!108 &1852574475
Light:
  m_ObjectHideFlags: 0
  m_CorrespondingSourceObject: {fileID: 0}
  m_PrefabInstance: {fileID: 0}
  m_PrefabAsset: {fileID: 0}
  m_GameObject: {fileID: 1852574474}
  m_Enabled: 1
  serializedVersion: 10
  m_Type: 1
  m_Shape: 0
  m_Color: {r: 1, g: 0.95686275, b: 0.8392157, a: 1}
  m_Intensity: 1
  m_Range: 10
  m_SpotAngle: 30
  m_InnerSpotAngle: 21.80208
  m_CookieSize: 10
  m_Shadows:
    m_Type: 2
    m_Resolution: -1
    m_CustomResolution: -1
    m_Strength: 1
    m_Bias: 0.05
    m_NormalBias: 0.4
    m_NearPlane: 0.2
    m_CullingMatrixOverride:
      e00: 1
      e01: 0
      e02: 0
      e03: 0
      e10: 0
      e11: 1
      e12: 0
      e13: 0
      e20: 0
      e21: 0
      e22: 1
      e23: 0
      e30: 0
      e31: 0
      e32: 0
      e33: 1
    m_UseCullingMatrixOverride: 0
  m_Cookie: {fileID: 0}
  m_DrawHalo: 0
  m_Flare: {fileID: 0}
  m_RenderMode: 0
  m_CullingMask:
    serializedVersion: 2
    m_Bits: 4294967295
  m_RenderingLayerMask: 1
  m_Lightmapping: 4
  m_LightShadowCasterMode: 0
  m_AreaSize: {x: 1, y: 1}
  m_BounceIntensity: 1
  m_ColorTemperature: 6570
  m_UseColorTemperature: 0
  m_BoundingSphereOverride: {x: 0, y: 0, z: 0, w: 0}
  m_UseBoundingSphereOverride: 0
  m_UseViewFrustumForShadowCasterCull: 1
  m_ShadowRadius: 0
  m_ShadowAngle: 0
--- !u!4 &1852574476
Transform:
  m_ObjectHideFlags: 0
  m_CorrespondingSourceObject: {fileID: 0}
  m_PrefabInstance: {fileID: 0}
  m_PrefabAsset: {fileID: 0}
  m_GameObject: {fileID: 1852574474}
  m_LocalRotation: {x: 0.15214126, y: -0.8455431, z: 0.39428318, w: 0.32626802}
  m_LocalPosition: {x: 0, y: 3, z: 0}
  m_LocalScale: {x: 1, y: 1, z: 1}
  m_Children: []
  m_Father: {fileID: 0}
  m_RootOrder: 31
  m_LocalEulerAnglesHint: {x: 50, y: -137.8, z: 0}
--- !u!1001 &2058164916
PrefabInstance:
  m_ObjectHideFlags: 0
  serializedVersion: 2
  m_Modification:
    m_TransformParent: {fileID: 0}
    m_Modifications:
    - target: {fileID: 4051953210503044, guid: 4f3b46d22459b2c468546b901f2a489d, type: 3}
      propertyPath: m_RootOrder
      value: 20
      objectReference: {fileID: 0}
    - target: {fileID: 4051953210503044, guid: 4f3b46d22459b2c468546b901f2a489d, type: 3}
      propertyPath: m_LocalPosition.x
      value: 12.077089
      objectReference: {fileID: 0}
    - target: {fileID: 4051953210503044, guid: 4f3b46d22459b2c468546b901f2a489d, type: 3}
      propertyPath: m_LocalPosition.y
      value: -6.0158525e-19
      objectReference: {fileID: 0}
    - target: {fileID: 4051953210503044, guid: 4f3b46d22459b2c468546b901f2a489d, type: 3}
      propertyPath: m_LocalPosition.z
      value: 3.467903
      objectReference: {fileID: 0}
    - target: {fileID: 4051953210503044, guid: 4f3b46d22459b2c468546b901f2a489d, type: 3}
      propertyPath: m_LocalRotation.w
      value: 1
      objectReference: {fileID: 0}
    - target: {fileID: 4051953210503044, guid: 4f3b46d22459b2c468546b901f2a489d, type: 3}
      propertyPath: m_LocalRotation.x
      value: 0
      objectReference: {fileID: 0}
    - target: {fileID: 4051953210503044, guid: 4f3b46d22459b2c468546b901f2a489d, type: 3}
      propertyPath: m_LocalRotation.y
      value: 0
      objectReference: {fileID: 0}
    - target: {fileID: 4051953210503044, guid: 4f3b46d22459b2c468546b901f2a489d, type: 3}
      propertyPath: m_LocalRotation.z
      value: 0
      objectReference: {fileID: 0}
    m_RemovedComponents: []
  m_SourcePrefab: {fileID: 100100000, guid: 4f3b46d22459b2c468546b901f2a489d, type: 3}
--- !u!1001 &2071330267
PrefabInstance:
  m_ObjectHideFlags: 0
  serializedVersion: 2
  m_Modification:
    m_TransformParent: {fileID: 0}
    m_Modifications:
    - target: {fileID: 4023091349679158, guid: 5eccbabcc6e9a6843bd3bcf7ca85706d, type: 3}
      propertyPath: m_RootOrder
      value: 11
      objectReference: {fileID: 0}
    - target: {fileID: 4023091349679158, guid: 5eccbabcc6e9a6843bd3bcf7ca85706d, type: 3}
      propertyPath: m_LocalPosition.x
      value: 7.3717647
      objectReference: {fileID: 0}
    - target: {fileID: 4023091349679158, guid: 5eccbabcc6e9a6843bd3bcf7ca85706d, type: 3}
      propertyPath: m_LocalPosition.y
      value: 5.2295945e-19
      objectReference: {fileID: 0}
    - target: {fileID: 4023091349679158, guid: 5eccbabcc6e9a6843bd3bcf7ca85706d, type: 3}
      propertyPath: m_LocalPosition.z
      value: -3.014656
      objectReference: {fileID: 0}
    - target: {fileID: 4023091349679158, guid: 5eccbabcc6e9a6843bd3bcf7ca85706d, type: 3}
      propertyPath: m_LocalRotation.w
      value: 1
      objectReference: {fileID: 0}
    - target: {fileID: 4023091349679158, guid: 5eccbabcc6e9a6843bd3bcf7ca85706d, type: 3}
      propertyPath: m_LocalRotation.x
      value: -0
      objectReference: {fileID: 0}
    - target: {fileID: 4023091349679158, guid: 5eccbabcc6e9a6843bd3bcf7ca85706d, type: 3}
      propertyPath: m_LocalRotation.y
      value: -0
      objectReference: {fileID: 0}
    - target: {fileID: 4023091349679158, guid: 5eccbabcc6e9a6843bd3bcf7ca85706d, type: 3}
      propertyPath: m_LocalRotation.z
      value: -0
      objectReference: {fileID: 0}
    m_RemovedComponents: []
  m_SourcePrefab: {fileID: 100100000, guid: 5eccbabcc6e9a6843bd3bcf7ca85706d, type: 3}
--- !u!1001 &2088140458
PrefabInstance:
  m_ObjectHideFlags: 0
  serializedVersion: 2
  m_Modification:
    m_TransformParent: {fileID: 0}
    m_Modifications:
    - target: {fileID: 4690806866131228, guid: 2c59bc70b9da308469dadbcdbb1bacc7, type: 3}
      propertyPath: m_RootOrder
      value: 14
      objectReference: {fileID: 0}
    - target: {fileID: 4690806866131228, guid: 2c59bc70b9da308469dadbcdbb1bacc7, type: 3}
      propertyPath: m_LocalPosition.x
      value: 15.232032
      objectReference: {fileID: 0}
    - target: {fileID: 4690806866131228, guid: 2c59bc70b9da308469dadbcdbb1bacc7, type: 3}
      propertyPath: m_LocalPosition.y
      value: 1.4739095e-18
      objectReference: {fileID: 0}
    - target: {fileID: 4690806866131228, guid: 2c59bc70b9da308469dadbcdbb1bacc7, type: 3}
      propertyPath: m_LocalPosition.z
      value: -8.49651
      objectReference: {fileID: 0}
    - target: {fileID: 4690806866131228, guid: 2c59bc70b9da308469dadbcdbb1bacc7, type: 3}
      propertyPath: m_LocalRotation.w
      value: 1
      objectReference: {fileID: 0}
    - target: {fileID: 4690806866131228, guid: 2c59bc70b9da308469dadbcdbb1bacc7, type: 3}
      propertyPath: m_LocalRotation.x
      value: -0
      objectReference: {fileID: 0}
    - target: {fileID: 4690806866131228, guid: 2c59bc70b9da308469dadbcdbb1bacc7, type: 3}
      propertyPath: m_LocalRotation.y
      value: -0
      objectReference: {fileID: 0}
    - target: {fileID: 4690806866131228, guid: 2c59bc70b9da308469dadbcdbb1bacc7, type: 3}
      propertyPath: m_LocalRotation.z
      value: -0
      objectReference: {fileID: 0}
    m_RemovedComponents: []
  m_SourcePrefab: {fileID: 100100000, guid: 2c59bc70b9da308469dadbcdbb1bacc7, type: 3}
--- !u!1001 &2096733486
PrefabInstance:
  m_ObjectHideFlags: 0
  serializedVersion: 2
  m_Modification:
    m_TransformParent: {fileID: 0}
    m_Modifications:
    - target: {fileID: 4652447719707944, guid: 876e3e4790d7eba42a6728d777e1a9cf, type: 3}
      propertyPath: m_RootOrder
      value: 5
      objectReference: {fileID: 0}
    - target: {fileID: 4652447719707944, guid: 876e3e4790d7eba42a6728d777e1a9cf, type: 3}
      propertyPath: m_LocalPosition.x
      value: 20.197851
      objectReference: {fileID: 0}
    - target: {fileID: 4652447719707944, guid: 876e3e4790d7eba42a6728d777e1a9cf, type: 3}
      propertyPath: m_LocalPosition.y
      value: -1.3726062e-18
      objectReference: {fileID: 0}
    - target: {fileID: 4652447719707944, guid: 876e3e4790d7eba42a6728d777e1a9cf, type: 3}
      propertyPath: m_LocalPosition.z
      value: 7.912536
      objectReference: {fileID: 0}
    - target: {fileID: 4652447719707944, guid: 876e3e4790d7eba42a6728d777e1a9cf, type: 3}
      propertyPath: m_LocalRotation.w
      value: 1
      objectReference: {fileID: 0}
    - target: {fileID: 4652447719707944, guid: 876e3e4790d7eba42a6728d777e1a9cf, type: 3}
      propertyPath: m_LocalRotation.x
      value: 0
      objectReference: {fileID: 0}
    - target: {fileID: 4652447719707944, guid: 876e3e4790d7eba42a6728d777e1a9cf, type: 3}
      propertyPath: m_LocalRotation.y
      value: 0
      objectReference: {fileID: 0}
    - target: {fileID: 4652447719707944, guid: 876e3e4790d7eba42a6728d777e1a9cf, type: 3}
      propertyPath: m_LocalRotation.z
      value: 0
      objectReference: {fileID: 0}
    m_RemovedComponents: []
  m_SourcePrefab: {fileID: 100100000, guid: 876e3e4790d7eba42a6728d777e1a9cf, type: 3}
--- !u!1001 &2140348366
PrefabInstance:
  m_ObjectHideFlags: 0
  serializedVersion: 2
  m_Modification:
    m_TransformParent: {fileID: 0}
    m_Modifications:
    - target: {fileID: 4908097257259686, guid: 382faf0957e39bf41b73549cd6fc2e8e, type: 3}
      propertyPath: m_RootOrder
      value: 21
      objectReference: {fileID: 0}
    - target: {fileID: 4908097257259686, guid: 382faf0957e39bf41b73549cd6fc2e8e, type: 3}
      propertyPath: m_LocalPosition.x
      value: -7.629326
      objectReference: {fileID: 0}
    - target: {fileID: 4908097257259686, guid: 382faf0957e39bf41b73549cd6fc2e8e, type: 3}
      propertyPath: m_LocalPosition.y
      value: -3.1453644e-18
      objectReference: {fileID: 0}
    - target: {fileID: 4908097257259686, guid: 382faf0957e39bf41b73549cd6fc2e8e, type: 3}
      propertyPath: m_LocalPosition.z
      value: 18.13179
      objectReference: {fileID: 0}
    - target: {fileID: 4908097257259686, guid: 382faf0957e39bf41b73549cd6fc2e8e, type: 3}
      propertyPath: m_LocalRotation.w
      value: 1
      objectReference: {fileID: 0}
    - target: {fileID: 4908097257259686, guid: 382faf0957e39bf41b73549cd6fc2e8e, type: 3}
      propertyPath: m_LocalRotation.x
      value: 0
      objectReference: {fileID: 0}
    - target: {fileID: 4908097257259686, guid: 382faf0957e39bf41b73549cd6fc2e8e, type: 3}
      propertyPath: m_LocalRotation.y
      value: 0
      objectReference: {fileID: 0}
    - target: {fileID: 4908097257259686, guid: 382faf0957e39bf41b73549cd6fc2e8e, type: 3}
      propertyPath: m_LocalRotation.z
      value: 0
      objectReference: {fileID: 0}
    m_RemovedComponents: []
  m_SourcePrefab: {fileID: 100100000, guid: 382faf0957e39bf41b73549cd6fc2e8e, type: 3}
